Concordancer for parallel, bilingual corpora • paracorp
…
Sampling numbers

If the requested number of sample (out of all matches) is greater than or equal to the number of matches of the search pattern, para_conc() will print messages indicating these situations, and will retrieve all matches found, rather than generating sample that is supposed to be fewer than the total matches.

The snippet below shows the scenario and printed message when the requested number of sample is equal to the number of matches.

# sample number requested is equal to the matches
para_conc(sci_en, sci_id, pattern = "should", conc_sample = 64, filename = FALSE)
#> The output concordance will be returned as a tibble data frame in the R console.
#> Detecting the match/pattern...
#> You choose to generate a 64 random-sample of the concordance lines.
#> The requested number of samples (64) is equal to the number of matches (64).
#> All (64) matches will be returned.
#> Generating the concordance for the match/pattern...
#> # A tibble: 64 x 4
#>    LEFT                   NODE  RIGHT                 TRANSLATION               
#>    <chr>                  <chr> <chr>                 <chr>                     
#>  1 Moreover, with its di… shou… actually be an endle… "Apalagi dengan ragam bud…
#>  2 Very often there are … shou… actually not be used… "Pemakaian granat gas ser…
#>  3 This enzyme should cr… shou… also react to the ho… "Enzim ini tentunya menja…
#>  4 When designating thes… shou… always be borne in m… "Ketika menentukan filum …
#>  5 This cannon            shou… be able to be used t… "Meriam ini harus bisa di…
#>  6 You                    shou… be able to control n… "Anda seharusnya dapat me…
#>  7 Therefore, the will t… shou… be able to foresee t… "Oleh karena itu, kehenda…
#>  8 It                     shou… be admitted that ini… "Perlu diakui bahwa untuk…
#>  9 The minor improvement… shou… be as readily preser… "Perubahan kecil dari gen…
#> 10 The process            shou… be carried by the do… "Proses tersebut harus di…
#> # … with 54 more rows

Meanwhile, the snippet below shows the scenario and printed message when the requested number of sample is greater than the number of matches.

# sample number requested is greater than the matches
para_conc(sci_en, sci_id, pattern = "should", conc_sample = 67, filename = FALSE)
#> The output concordance will be returned as a tibble data frame in the R console.
#> Detecting the match/pattern...
#> You choose to generate a 67 random-sample of the concordance lines.
#> The requested number of samples (67) is greater than the number of matches (64).
#> All (64) matches will be returned.
#> Generating the concordance for the match/pattern...
#> # A tibble: 64 x 4
#>    LEFT                   NODE  RIGHT                 TRANSLATION               
#>    <chr>                  <chr> <chr>                 <chr>                     
#>  1 Moreover, with its di… shou… actually be an endle… "Apalagi dengan ragam bud…
#>  2 Very often there are … shou… actually not be used… "Pemakaian granat gas ser…
#>  3 This enzyme should cr… shou… also react to the ho… "Enzim ini tentunya menja…
#>  4 When designating thes… shou… always be borne in m… "Ketika menentukan filum …
#>  5 This cannon            shou… be able to be used t… "Meriam ini harus bisa di…
#>  6 You                    shou… be able to control n… "Anda seharusnya dapat me…
#>  7 Therefore, the will t… shou… be able to foresee t… "Oleh karena itu, kehenda…
#>  8 It                     shou… be admitted that ini… "Perlu diakui bahwa untuk…
#>  9 The minor improvement… shou… be as readily preser… "Perubahan kecil dari gen…
#> 10 The process            shou… be carried by the do… "Proses tersebut harus di…
#> # … with 54 more rows
…
